{
  "name": "chriscowley-redis_exporter",
  "version": "0.1.0",
  "author": "Chris Cowley",
  "summary": "Install the Redis exporter for Prometheus",
  "license": "Apache-2.0",
  "source": "https://gitlab.com/chriscowleysound/puppet-redis_exporter.git",
  "project_page": "https://gitlab.com/chriscowleysound/puppet-redis_exporter",
  "issues_url": "https://gitlab.com/chriscowleysound/puppet-redis_exporter/issues",
  "dependencies": [
    {
      "name": "puppetlabs-stdlib",
      "version_requirement": ">= 4.13.1 < 5.0.0"
    },
    {
      "name": "puppet/archive",
      "version_requirement": ">=1.3.0 < 999.999.999"
    }
  ],
  "operatingsystem_support": [
    {
      "operatingsystem": "Debian",
      "operatingsystemrelease": [
        "8"
      ]
    },
    {
      "operatingsystem": "RedHat",
      "operatingsystemrelease": [
        "7.0"
      ]
    },
    {
      "operatingsystem": "Ubuntu",
      "operatingsystemrelease": [
        "16.04"
      ]
    }
  ],
  "requirements": [
    {
      "name": "puppet",
      "version_requirement": ">= 4.7.0 < 6.0.0"
    }
  ],
  "pdk-version": "1.0.0",
  "template-url": "file:///opt/puppetlabs/pdk/share/cache/pdk-module-template.git",
  "template-ref": "heads/master-0-g5db7961"
}
